{
  "key": "${addon.key}",
  "baseUrl": "${addon.base-url}",
  "name": "Atlassian Connect Spring Boot Retrofit Sample",
  "authentication": {
    "type": "jwt"
  },
  "lifecycle": {
    "installed": "/installed",
    "uninstalled": "/uninstalled"
  },
  "scopes": ["READ", "ACT_AS_USER"]
}
